{
  "type": "service_account",
  "project_id": "gapura-pdj10730",
  "private_key_id": "3dcb6d7e80ddde0a74c56bd1974d7dd14a3dc75e",
  "private_key": "-----BEGIN PRIVATE KEY-----\nMIIEvgIBADANBgkqhkiG9w0BAQEFAASCBKgwggSkAgEAAoIBAQDb+bak8NJmJeKL\ncSKsgKtgZR7o92LH6wNyWG2uoN9DWHMAVfrWIG/dkgPWATZiX82O8QqlKMaS1CjI\n1zORHrEBrA3yzayn/ZKFGJqwOE+nOiY/1cKFh+rx9kEPAMYbouA7fx61rXeYKqhe\nfHINdZaS7Cd751yILIo1sgjW0xU0Wg+VQeztVV45gC1nyINvH8Ukznxj8+0DCwSW\n+HjLWBxubOWPeguO4MJd5lqwd8MBDyULIDTy6wYGujIsqK8ENOAWBPvIlzd0hpeU\nJ+ulpWssGlI9D2s/ueamwSeFwZ13Q/yRgh655sp5I9t+bYpco+nscWBVkG+8smxG\nsRvsYfgtAgMBAAECggEADQJM0J7UVomlhukTK5/1Yp9AT3c33opRuxyrKeFmKrmr\nnWi4S5sB+pjExM5wDKvNQIeVQVSyv6Kv4cbGTC4EOkzWS1ZqAEpQ9LGSjlraLRHV\nir9lwFdcJ+CQEubREHfWqnYXVxex46wcJnBWH2ElnT09jYiOcpgtuUS03J2BmsWf\nk8Q5Gi5yjyuG6wp/rnsoHwCr2xx4trTL3eOxgmRS6TZ/vNDQjBikJLMwB5OtrlmC\nxpfIvT9Dbg4g/tEvi98N7/EwykCzMHeqtJBD1kyG3ubQK5qhPYD8alTAxDgUy6+d\nJgyWyGPtlmb+bLuZbj8uKexpfkPuCUrHVDJ87ByZ0QKBgQD/AVEapU9Z5WuJRgGt\n/1161yrCXn+bgscj2mOSt7YnT3bpezLq/Mg/MZhf0JLGMSruJKbGiJkBHk2XZN0v\n5h9tQGFjNex4y7ERMqaALAyqlLBKO599/jtMxVHQp5vam2aw2BZCYCEJBIYgBBAs\nC85MFqjntm20eRrurmXrtsUSHQKBgQDc1WlCR0K4FJlmOHAcEE7wzyXO8Og79NiF\nwS9NJRCXNZ9gq/ZSbdqbKQvUnPhn/uQfpKqVuwTXsOMqBGbka6vgpVBSi5mf6vpW\nXNFdkR6+WbWwU9Eh1zgHuF9l3QSm2g3SXCg35lVJnalzkNIao7Biwu/TtjWV+sxo\nFIQd9L+hUQKBgGLvzNrMtnvHYjCRY8dxY4BsiN9+sH3SgJbtfWKIOnkIALfXn8rC\nJqM2B8ts7fVNUD2zJK20g8CGVE5fyN1zqE/IAcDvQ/8d8GYew7DI5mUsaTVz6o6E\nm9dOW07cKMDpOC92tzQrfcW05qD3Upr0PacRx5iXE/tIXWWrbknE0LMVAoGBAJS1\n7jUg0dAupwKMPQrY/J/zjy1lU66Uen7QEi9sJ1j8VkB+bNkjexQDtyDNOAaoQi0A\n8ZL1JxSs3Lz9y+BElbEpAgckVSa40S35QVA2GrLqrIx6VRnp2aRxR2TMSoalzqr7\nPmYuaP6y+lqFisc/tdc8GM7EJB/EjYQFVNbra2SRAoGBAPz0u05Sg6XiH4599QY3\nmZf36LSt/Yo9B/WXMEe8eTJbvDKJVLuysxoNjNvORr56Vo9uQJjOuhfXmd4z66F/\n+LCb59j2dHax8UWEis9CrAF4TbQc1KUNQxmrWPt07dBwf1vyKCIWC1i3Id1UrvC8\nVljN1xpAucpwXMcJcRgABFce\n-----END PRIVATE KEY-----\n",
  "client_email": "firebase-adminsdk-2sc3i@gapura-pdj10730.iam.gserviceaccount.com",
  "client_id": "112582618885010634054",
  "auth_uri": "https://accounts.google.com/o/oauth2/auth",
  "token_uri": "https://oauth2.googleapis.com/token",
  "auth_provider_x509_cert_url": "https://www.googleapis.com/oauth2/v1/certs",
  "client_x509_cert_url": "https://www.googleapis.com/robot/v1/metadata/x509/firebase-adminsdk-2sc3i%40gapura-pdj10730.iam.gserviceaccount.com"
}
